{
  "+441224015200": {
    "number": "+441224015200",
    "count": "110",
    "hour": "11"
  },
  "+46843737822": {
    "number": "+46843737822",
    "count": "3",
    "hour": "11"
  },
  "+972595725668": {
    "number": "+972595725668",
    "count": "4",
    "hour": "11"
  }
}